%YAML 1.1
%TAG !u! tag:unity3d.com,2011:
--- !u!1045 &1
EditorBuildSettings:
  m_ObjectHideFlags: 0
  serializedVersion: 2
  m_Scenes:
  - enabled: 0
    path: Assets/Scenes/Win.unity
    guid: 9bf4e251bee00ee4ba2eee2240b67e45
  - enabled: 1
    path: Assets/Scenes/Realistic Demo.unity
    guid: 71f4b914a15a2f14eb55872d0101ca86
  - enabled: 1
    path: Assets/Scenes/Lose.unity
    guid: e9ef3e386c593c44c82945f148b4132d
  m_configObjects:
    Unity.XR.OpenVR.Settings: {fileID: 11400000, guid: 4323b238cb477cc45b37e49bbe090df5, type: 2}
    com.unity.xr.management.loader_settings: {fileID: 11400000, guid: 579e0f6213b3cb24f96f6282d8f20535, type: 2}
